Figure1
…
To do the stats on this, I used this R package and the associated vignette to perform multi-set intersection testing:

https://cran.r-project.org/web/packages/SuperExactTest/vignettes/set_html.html

# get the total number of distinct sorghum orthologs
orthos %>%
  na.omit() %>%
  distinct(SB)

# A tibble: 18,163 × 1
   SB               
   <chr>            
 1 SORBI_3008G134800
 2 SORBI_3008G021800
 3 SORBI_3008G072400
 4 SORBI_3008G141100
 5 SORBI_3008G032100
 6 SORBI_3008G179900
 7 SORBI_3008G115900
 8 SORBI_3008G116800
 9 SORBI_3008G013200
10 SORBI_3008G113500
# ℹ 18,153 more rows
…
